{
  "count": 4,
  "next": "https://api.octopus.energy/v1/electricity-meter-points/1100009640372/meters/22L4344979/consumption/?page=2&page_size=2",
  "previous": null,
  "results": [
    {
      "consumption": 0.234,
      "interval_start": "2026-03-05T23:30:00Z",
      "interval_end": "2026-03-06T00:00:00Z"
    },
    {
      "consumption": 0.456,
      "interval_start": "2026-03-05T23:00:00Z",
      "interval_end": "2026-03-05T23:30:00Z"
    }
  ]
}
